vhdl/PROC/tb1.vcd
$date
  Fri Oct 14 18:29:41 2016
$end
$version
  GHDL v0
$end
$timescale
  1 fs
$end
$var reg 1 ! clk $end
$var reg 16 " w_bus[15:0] $end
$var reg 16 # alu_out[15:0] $end
$var reg 1 $ wx $end
$var reg 1 % wy $end
$var reg 1 & wb $end
$var reg 1 ' wxy $end
$var reg 1 ( ci $end
$var reg 1 ) rb $end
$var reg 1 * rc $end
$var reg 1 + ru $end
$var reg 1 , tbclock $end
$scope module dut $end
$var reg 1 - clk $end
$var reg 16 . w_bus[15:0] $end
$var reg 16 / alu_out[15:0] $end
$var reg 1 0 wx $end
$var reg 1 1 wy $end
$var reg 1 2 wb $end
$var reg 1 3 wxy $end
$var reg 1 4 ci $end
$var reg 1 5 rb $end
$var reg 1 6 rc $end
$var reg 1 7 ru $end
$var reg 16 8 x_sig[15:0] $end
$var reg 16 9 y_sig[15:0] $end
$var reg 16 : u_sig[15:0] $end
$var reg 1 ; c_sig $end
$scope module adder_1 $end
$var reg 1 < clk $end
$var reg 16 = x[15:0] $end
$var reg 16 > y[15:0] $end
$var reg 16 ? s[15:0] $end
$var reg 1 @ c_in $end
$var reg 1 A carry_out $end
$var reg 1 B carry_in $end
$scope module full_adder_1 $end
$var reg 16 C x[15:0] $end
$var reg 16 D y[15:0] $end
$var reg 1 E cin $end
$var reg 16 F s[15:0] $end
$var reg 1 G c $end
$upscope $end
$scope module carry_ff_1 $end
$var reg 1 H clk $end
$var reg 1 I c_in $end
$var reg 1 J c_out $end
$var reg 1 K force_in $end
$upscope $end
$upscope $end
$scope module alu_reg_1 $end
$var reg 1 L clk $end
$var reg 1 M wx $end
$var reg 1 N wy $end
$var reg 1 O wb $end
$var reg 1 P wxy $end
$var reg 1 Q ci $end
$var reg 1 R rb $end
$var reg 1 S rc $end
$var reg 1 T ru $end
$var reg 16 U x_add[15:0] $end
$var reg 16 V y_add[15:0] $end
$var reg 1 W c_force_add $end
$var reg 16 X u_add[15:0] $end
$var reg 16 Y w_bus[15:0] $end
$var reg 16 Z alu_out[15:0] $end
$var reg 16 [ b[15:0] $end
$var reg 16 \ f[15:0] $end
$var reg 16 ] u[15:0] $end
$upscope $end
$upscope $end
$enddefinitions $end
#0
0!
b0000000000000000 "
b0000000000000000 #
1$
1%
1&
1'
1(
1)
1*
1+
0,
0-
b0000000000000000 .
b0000000000000000 /
10
11
12
13
14
15
16
17
bUUUUUUUUUUUUUUUU 8
bUUUUUUUUUUUUUUUU 9
bUUUUUUUUUUUUUUUU :
U;
0<
bUUUUUUUUUUUUUUUU =
bUUUUUUUUUUUUUUUU >
bUUUUUUUUUUUUUUUU ?
U@
UA
UB
bUUUUUUUUUUUUUUUU C
bUUUUUUUUUUUUUUUU D
UE
bUUUUUUUUUUUUUUUU F
UG
0H
UI
UJ
UK
0L
1M
1N
1O
1P
1Q
1R
1S
1T
bUUUUUUUUUUUUUUUU U
bUUUUUUUUUUUUUUUU V
UW
bUUUUUUUUUUUUUUUU X
b0000000000000000 Y
b0000000000000000 Z
bUUUUUUUUUUUUUUUU [
bUUUUUUUUUUUUUUUU \
bUUUUUUUUUUUUUUUU ]
#500000000
1!
1,
1-
1<
1H
1L
#1000000000
0!
0,
0-
0<
0H
0L
#1500000000
1!
1,
1-
1<
1H
1L
#2000000000
0!
b0000000000000100 "
0%
0,
0-
b0000000000000100 .
01
0<
0H
0L
0N
b0000000000000100 Y
#2500000000
1!
1,
1-
b0000000000000000 8
b0000000000000100 9
b000000000000010U :
0;
1<
b0000000000000000 =
b0000000000000100 >
b000000000000010U ?
0@
0A
b0000000000000000 C
b0000000000000100 D
b000000000000010U F
0G
1H
0I
0K
1L
b0000000000000000 U
b0000000000000100 V
0W
b000000000000010U X
#3000000000
0!
0,
0-
b0000000000000100 :
0<
b0000000000000100 ?
0B
0E
b0000000000000100 F
0H
0J
0L
b0000000000000100 X
#3500000000
1!
1,
1-
1<
1H
1L
#4000000000
0!
b1111111111111101 "
0$
1%
0,
0-
b1111111111111101 .
00
11
0<
0H
0L
0M
1N
b1111111111111101 Y
#4500000000
1!
1,
1-
b1111111111111101 8
b0000000000000001 :
1<
b1111111111111101 =
b0000000000000001 ?
1A
b1111111111111101 C
b0000000000000001 F
1G
1H
1I
1L
b1111111111111101 U
b0000000000000001 X
#5000000000
0!
0,
0-
b0000000000000010 :
0<
b0000000000000010 ?
1B
1E
b0000000000000010 F
0H
1J
0L
b0000000000000010 X
#5500000000
1!
1,
1-
b0000000000000001 :
1<
b0000000000000001 ?
0B
0E
b0000000000000001 F
1H
0J
1L
b0000000000000001 X
#6000000000
0!
b0000000000000010 #
1$
0+
0,
0-
b0000000000000010 /
10
07
b0000000000000010 :
0<
b0000000000000010 ?
1B
1E
b0000000000000010 F
0H
1J
0L
1M
0T
b0000000000000010 X
b0000000000000010 Z
#6500000000
1!
b0000000000000001 #
1,
1-
b0000000000000001 /
b0000000000000001 :
1<
b0000000000000001 ?
0B
0E
b0000000000000001 F
1H
0J
1L
b0000000000000001 X
b0000000000000001 Z
#7000000000
0!
b0000000000000010 #
0,
0-
b0000000000000010 /
b0000000000000010 :
0<
b0000000000000010 ?
1B
1E
b0000000000000010 F
0H
1J
0L
b0000000000000010 X
b0000000000000010 Z
#7500000000
1!
b0000000000000001 #
1,
1-
b0000000000000001 /
b0000000000000001 :
1<
b0000000000000001 ?
0B
0E
b0000000000000001 F
1H
0J
1L
b0000000000000001 X
b0000000000000001 Z
#8000000000
0!
b0000000000010010 "
b0000000000000000 #
0&
1+
0,
0-
b0000000000010010 .
b0000000000000000 /
02
17
b0000000000000010 :
0<
b0000000000000010 ?
1B
1E
b0000000000000010 F
0H
1J
0L
0O
1T
b0000000000000010 X
b0000000000010010 Y
b0000000000000000 Z
#8500000000
1!
1,
1-
b0000000000000001 :
1<
b0000000000000001 ?
0B
0E
b0000000000000001 F
1H
0J
1L
b0000000000000001 X
b0000000000010010 [
#9000000000
0!
0,
0-
b0000000000000010 :
0<
b0000000000000010 ?
1B
1E
b0000000000000010 F
0H
1J
0L
b0000000000000010 X
#9500000000
1!
1,
1-
b0000000000000001 :
1<
b0000000000000001 ?
0B
0E
b0000000000000001 F
1H
0J
1L
b0000000000000001 X
#10000000000
0!
b0000000000010010 #
1&
0)
0,
0-
b0000000000010010 /
12
05
b0000000000000010 :
0<
b0000000000000010 ?
1B
1E
b0000000000000010 F
0H
1J
0L
1O
0R
b0000000000000010 X
b0000000000010010 Z
#10500000000
1!
1,
1-
b0000000000000001 :
1<
b0000000000000001 ?
0B
0E
b0000000000000001 F
1H
0J
1L
b0000000000000001 X
#11000000000
0!
0,
0-
b0000000000000010 :
0<
b0000000000000010 ?
1B
1E
b0000000000000010 F
0H
1J
0L
b0000000000000010 X
#11500000000
1!
1,
1-
b0000000000000001 :
1<
b0000000000000001 ?
0B
0E
b0000000000000001 F
1H
0J
1L
b0000000000000001 X
#12000000000
0!
b1111111111101101 #
1)
0*
0,
0-
b1111111111101101 /
15
06
b0000000000000010 :
0<
b0000000000000010 ?
1B
1E
b0000000000000010 F
0H
1J
0L
1R
0S
b0000000000000010 X
b1111111111101101 Z
#12500000000
1!
1,
1-
b0000000000000001 :
1<
b0000000000000001 ?
0B
0E
b0000000000000001 F
1H
0J
1L
b0000000000000001 X
#13000000000
0!
0,
0-
b0000000000000010 :
0<
b0000000000000010 ?
1B
1E
b0000000000000010 F
0H
1J
0L
b0000000000000010 X
#13500000000
1!
1,
1-
b0000000000000001 :
1<
b0000000000000001 ?
0B
0E
b0000000000000001 F
1H
0J
1L
b0000000000000001 X
#14000000000
0!
0,
0-
b0000000000000010 :
0<
b0000000000000010 ?
1B
1E
b0000000000000010 F
0H
1J
0L
b0000000000000010 X
#14500000000
1!
1,
1-
b0000000000000001 :
1<
b0000000000000001 ?
0B
0E
b0000000000000001 F
1H
0J
1L
b0000000000000001 X
#15000000000
0!
0,
0-
b0000000000000010 :
0<
b0000000000000010 ?
1B
1E
b0000000000000010 F
0H
1J
0L
b0000000000000010 X
#15500000000
1!
1,
1-
b0000000000000001 :
1<
b0000000000000001 ?
0B
0E
b0000000000000001 F
1H
0J
1L
b0000000000000001 X
#16000000000
0!
0,
0-
b0000000000000010 :
0<
b0000000000000010 ?
1B
1E
b0000000000000010 F
0H
1J
0L
b0000000000000010 X
#16500000000
1!
1,
1-
b0000000000000001 :
1<
b0000000000000001 ?
0B
0E
b0000000000000001 F
1H
0J
1L
b0000000000000001 X
#17000000000
0!
0,
0-
b0000000000000010 :
0<
b0000000000000010 ?
1B
1E
b0000000000000010 F
0H
1J
0L
b0000000000000010 X
#17500000000
1!
1,
1-
b0000000000000001 :
1<
b0000000000000001 ?
0B
0E
b0000000000000001 F
1H
0J
1L
b0000000000000001 X
#18000000000
0!
0,
0-
b0000000000000010 :
0<
b0000000000000010 ?
1B
1E
b0000000000000010 F
0H
1J
0L
b0000000000000010 X
#18500000000
1!
1,
1-
b0000000000000001 :
1<
b0000000000000001 ?
0B
0E
b0000000000000001 F
1H
0J
1L
b0000000000000001 X
#19000000000
0!
0,
0-
b0000000000000010 :
0<
b0000000000000010 ?
1B
1E
b0000000000000010 F
0H
1J
0L
b0000000000000010 X
#19500000000
1!
1,
1-
b0000000000000001 :
1<
b0000000000000001 ?
0B
0E
b0000000000000001 F
1H
0J
1L
b0000000000000001 X
#20000000000
0!
0,
0-
b0000000000000010 :
0<
b0000000000000010 ?
1B
1E
b0000000000000010 F
0H
1J
0L
b0000000000000010 X
#20500000000
1!
1,
1-
b0000000000000001 :
1<
b0000000000000001 ?
0B
0E
b0000000000000001 F
1H
0J
1L
b0000000000000001 X
#21000000000
0!
0,
0-
b0000000000000010 :
0<
b0000000000000010 ?
1B
1E
b0000000000000010 F
0H
1J
0L
b0000000000000010 X
#21500000000
1!
1,
1-
b0000000000000001 :
1<
b0000000000000001 ?
0B
0E
b0000000000000001 F
1H
0J
1L
b0000000000000001 X
#22000000000
0!
0,
0-
b0000000000000010 :
0<
b0000000000000010 ?
1B
1E
b0000000000000010 F
0H
1J
0L
b0000000000000010 X
#22500000000
1!
1,
1-
b0000000000000001 :
1<
b0000000000000001 ?
0B
0E
b0000000000000001 F
1H
0J
1L
b0000000000000001 X
#23000000000
0!
0,
0-
b0000000000000010 :
0<
b0000000000000010 ?
1B
1E
b0000000000000010 F
0H
1J
0L
b0000000000000010 X
#23500000000
1!
1,
1-
b0000000000000001 :
1<
b0000000000000001 ?
0B
0E
b0000000000000001 F
1H
0J
1L
b0000000000000001 X
#24000000000
0!
0,
0-
b0000000000000010 :
0<
b0000000000000010 ?
1B
1E
b0000000000000010 F
0H
1J
0L
b0000000000000010 X
#24500000000
1!
1,
1-
b0000000000000001 :
1<
b0000000000000001 ?
0B
0E
b0000000000000001 F
1H
0J
1L
b0000000000000001 X
#25000000000
0!
0,
0-
b0000000000000010 :
0<
b0000000000000010 ?
1B
1E
b0000000000000010 F
0H
1J
0L
b0000000000000010 X
#25500000000
1!
1,
1-
b0000000000000001 :
1<
b0000000000000001 ?
0B
0E
b0000000000000001 F
1H
0J
1L
b0000000000000001 X
#26000000000
0!
0,
0-
b0000000000000010 :
0<
b0000000000000010 ?
1B
1E
b0000000000000010 F
0H
1J
0L
b0000000000000010 X
#26500000000
1!
1,
1-
b0000000000000001 :
1<
b0000000000000001 ?
0B
0E
b0000000000000001 F
1H
0J
1L
b0000000000000001 X
#27000000000
0!
0,
0-
b0000000000000010 :
0<
b0000000000000010 ?
1B
1E
b0000000000000010 F
0H
1J
0L
b0000000000000010 X
#27500000000
1!
1,
1-
b0000000000000001 :
1<
b0000000000000001 ?
0B
0E
b0000000000000001 F
1H
0J
1L
b0000000000000001 X
#28000000000
0!
0,
0-
b0000000000000010 :
0<
b0000000000000010 ?
1B
1E
b0000000000000010 F
0H
1J
0L
b0000000000000010 X
#28500000000
1!
1,
1-
b0000000000000001 :
1<
b0000000000000001 ?
0B
0E
b0000000000000001 F
1H
0J
1L
b0000000000000001 X
#29000000000
0!
0,
0-
b0000000000000010 :
0<
b0000000000000010 ?
1B
1E
b0000000000000010 F
0H
1J
0L
b0000000000000010 X
#29500000000
1!
1,
1-
b0000000000000001 :
1<
b0000000000000001 ?
0B
0E
b0000000000000001 F
1H
0J
1L
b0000000000000001 X
#30000000000
0!
0,
0-
b0000000000000010 :
0<
b0000000000000010 ?
1B
1E
b0000000000000010 F
0H
1J
0L
b0000000000000010 X
#30500000000
1!
1,
1-
b0000000000000001 :
1<
b0000000000000001 ?
0B
0E
b0000000000000001 F
1H
0J
1L
b0000000000000001 X
#31000000000
0!
0,
0-
b0000000000000010 :
0<
b0000000000000010 ?
1B
1E
b0000000000000010 F
0H
1J
0L
b0000000000000010 X
#31500000000
1!
1,
1-
b0000000000000001 :
1<
b0000000000000001 ?
0B
0E
b0000000000000001 F
1H
0J
1L
b0000000000000001 X
#32000000000
0!
0,
0-
b0000000000000010 :
0<
b0000000000000010 ?
1B
1E
b0000000000000010 F
0H
1J
0L
b0000000000000010 X
#32500000000
1!
1,
1-
b0000000000000001 :
1<
b0000000000000001 ?
0B
0E
b0000000000000001 F
1H
0J
1L
b0000000000000001 X
#33000000000
0!
0,
0-
b0000000000000010 :
0<
b0000000000000010 ?
1B
1E
b0000000000000010 F
0H
1J
0L
b0000000000000010 X
#33500000000
1!
1,
1-
b0000000000000001 :
1<
b0000000000000001 ?
0B
0E
b0000000000000001 F
1H
0J
1L
b0000000000000001 X
#34000000000
0!
0,
0-
b0000000000000010 :
0<
b0000000000000010 ?
1B
1E
b0000000000000010 F
0H
1J
0L
b0000000000000010 X
#34500000000
1!
1,
1-
b0000000000000001 :
1<
b0000000000000001 ?
0B
0E
b0000000000000001 F
1H
0J
1L
b0000000000000001 X
#35000000000
0!
0,
0-
b0000000000000010 :
0<
b0000000000000010 ?
1B
1E
b0000000000000010 F
0H
1J
0L
b0000000000000010 X
#35500000000
1!
1,
1-
b0000000000000001 :
1<
b0000000000000001 ?
0B
0E
b0000000000000001 F
1H
0J
1L
b0000000000000001 X
#36000000000
0!
0,
0-
b0000000000000010 :
0<
b0000000000000010 ?
1B
1E
b0000000000000010 F
0H
1J
0L
b0000000000000010 X
#36500000000
1!
1,
1-
b0000000000000001 :
1<
b0000000000000001 ?
0B
0E
b0000000000000001 F
1H
0J
1L
b0000000000000001 X
#37000000000
0!
0,
0-
b0000000000000010 :
0<
b0000000000000010 ?
1B
1E
b0000000000000010 F
0H
1J
0L
b0000000000000010 X
#37500000000
1!
1,
1-
b0000000000000001 :
1<
b0000000000000001 ?
0B
0E
b0000000000000001 F
1H
0J
1L
b0000000000000001 X
#38000000000
0!
0,
0-
b0000000000000010 :
0<
b0000000000000010 ?
1B
1E
b0000000000000010 F
0H
1J
0L
b0000000000000010 X
#38500000000
1!
1,
1-
b0000000000000001 :
1<
b0000000000000001 ?
0B
0E
b0000000000000001 F
1H
0J
1L
b0000000000000001 X
#39000000000
0!
0,
0-
b0000000000000010 :
0<
b0000000000000010 ?
1B
1E
b0000000000000010 F
0H
1J
0L
b0000000000000010 X
#39500000000
1!
1,
1-
b0000000000000001 :
1<
b0000000000000001 ?
0B
0E
b0000000000000001 F
1H
0J
1L
b0000000000000001 X
#40000000000
0!
0,
0-
b0000000000000010 :
0<
b0000000000000010 ?
1B
1E
b0000000000000010 F
0H
1J
0L
b0000000000000010 X
#40500000000
1!
1,
1-
b0000000000000001 :
1<
b0000000000000001 ?
0B
0E
b0000000000000001 F
1H
0J
1L
b0000000000000001 X
#41000000000
0!
0,
0-
b0000000000000010 :
0<
b0000000000000010 ?
1B
1E
b0000000000000010 F
0H
1J
0L
b0000000000000010 X
#41500000000
1!
1,
1-
b0000000000000001 :
1<
b0000000000000001 ?
0B
0E
b0000000000000001 F
1H
0J
1L
b0000000000000001 X
#42000000000
0!
0,
0-
b0000000000000010 :
0<
b0000000000000010 ?
1B
1E
b0000000000000010 F
0H
1J
0L
b0000000000000010 X
#42500000000
1!
1,
1-
b0000000000000001 :
1<
b0000000000000001 ?
0B
0E
b0000000000000001 F
1H
0J
1L
b0000000000000001 X
#43000000000
0!
0,
0-
b0000000000000010 :
0<
b0000000000000010 ?
1B
1E
b0000000000000010 F
0H
1J
0L
b0000000000000010 X
#43500000000
1!
1,
1-
b0000000000000001 :
1<
b0000000000000001 ?
0B
0E
b0000000000000001 F
1H
0J
1L
b0000000000000001 X
#44000000000
0!
0,
0-
b0000000000000010 :
0<
b0000000000000010 ?
1B
1E
b0000000000000010 F
0H
1J
0L
b0000000000000010 X
#44500000000
1!
1,
1-
b0000000000000001 :
1<
b0000000000000001 ?
0B
0E
b0000000000000001 F
1H
0J
1L
b0000000000000001 X
#45000000000
0!
0,
0-
b0000000000000010 :
0<
b0000000000000010 ?
1B
1E
b0000000000000010 F
0H
1J
0L
b0000000000000010 X
#45500000000
1!
1,
1-
b0000000000000001 :
1<
b0000000000000001 ?
0B
0E
b0000000000000001 F
1H
0J
1L
b0000000000000001 X
#46000000000
0!
0,
0-
b0000000000000010 :
0<
b0000000000000010 ?
1B
1E
b0000000000000010 F
0H
1J
0L
b0000000000000010 X
#46500000000
1!
1,
1-
b0000000000000001 :
1<
b0000000000000001 ?
0B
0E
b0000000000000001 F
1H
0J
1L
b0000000000000001 X
#47000000000
0!
0,
0-
b0000000000000010 :
0<
b0000000000000010 ?
1B
1E
b0000000000000010 F
0H
1J
0L
b0000000000000010 X
#47500000000
1!
1,
1-
b0000000000000001 :
1<
b0000000000000001 ?
0B
0E
b0000000000000001 F
1H
0J
1L
b0000000000000001 X
#48000000000
0!
0,
0-
b0000000000000010 :
0<
b0000000000000010 ?
1B
1E
b0000000000000010 F
0H
1J
0L
b0000000000000010 X
#48500000000
1!
1,
1-
b0000000000000001 :
1<
b0000000000000001 ?
0B
0E
b0000000000000001 F
1H
0J
1L
b0000000000000001 X
#49000000000
0!
0,
0-
b0000000000000010 :
0<
b0000000000000010 ?
1B
1E
b0000000000000010 F
0H
1J
0L
b0000000000000010 X
#49500000000
1!
1,
1-
b0000000000000001 :
1<
b0000000000000001 ?
0B
0E
b0000000000000001 F
1H
0J
1L
b0000000000000001 X
#50000000000
0!
0,
0-
b0000000000000010 :
0<
b0000000000000010 ?
1B
1E
b0000000000000010 F
0H
1J
0L
b0000000000000010 X
#50500000000
1!
1,
1-
b0000000000000001 :
1<
b0000000000000001 ?
0B
0E
b0000000000000001 F
1H
0J
1L
b0000000000000001 X
#51000000000
0!
0,
0-
b0000000000000010 :
0<
b0000000000000010 ?
1B
1E
b0000000000000010 F
0H
1J
0L
b0000000000000010 X
#51500000000
1!
1,
1-
b0000000000000001 :
1<
b0000000000000001 ?
0B
0E
b0000000000000001 F
1H
0J
1L
b0000000000000001 X
#52000000000
0!
0,
0-
b0000000000000010 :
0<
b0000000000000010 ?
1B
1E
b0000000000000010 F
0H
1J
0L
b0000000000000010 X
#52500000000
1!
1,
1-
b0000000000000001 :
1<
b0000000000000001 ?
0B
0E
b0000000000000001 F
1H
0J
1L
b0000000000000001 X
#53000000000
0!
0,
0-
b0000000000000010 :
0<
b0000000000000010 ?
1B
1E
b0000000000000010 F
0H
1J
0L
b0000000000000010 X
#53500000000
1!
1,
1-
b0000000000000001 :
1<
b0000000000000001 ?
0B
0E
b0000000000000001 F
1H
0J
1L
b0000000000000001 X
#54000000000
0!
0,
0-
b0000000000000010 :
0<
b0000000000000010 ?
1B
1E
b0000000000000010 F
0H
1J
0L
b0000000000000010 X
#54500000000
1!
1,
1-
b0000000000000001 :
1<
b0000000000000001 ?
0B
0E
b0000000000000001 F
1H
0J
1L
b0000000000000001 X
#55000000000
0!
0,
0-
b0000000000000010 :
0<
b0000000000000010 ?
1B
1E
b0000000000000010 F
0H
1J
0L
b0000000000000010 X
#55500000000
1!
1,
1-
b0000000000000001 :
1<
b0000000000000001 ?
0B
0E
b0000000000000001 F
1H
0J
1L
b0000000000000001 X
#56000000000
0!
0,
0-
b0000000000000010 :
0<
b0000000000000010 ?
1B
1E
b0000000000000010 F
0H
1J
0L
b0000000000000010 X
#56500000000
1!
1,
1-
b0000000000000001 :
1<
b0000000000000001 ?
0B
0E
b0000000000000001 F
1H
0J
1L
b0000000000000001 X
#57000000000
0!
0,
0-
b0000000000000010 :
0<
b0000000000000010 ?
1B
1E
b0000000000000010 F
0H
1J
0L
b0000000000000010 X
#57500000000
1!
1,
1-
b0000000000000001 :
1<
b0000000000000001 ?
0B
0E
b0000000000000001 F
1H
0J
1L
b0000000000000001 X
#58000000000
0!
0,
0-
b0000000000000010 :
0<
b0000000000000010 ?
1B
1E
b0000000000000010 F
0H
1J
0L
b0000000000000010 X
#58500000000
1!
1,
1-
b0000000000000001 :
1<
b0000000000000001 ?
0B
0E
b0000000000000001 F
1H
0J
1L
b0000000000000001 X
#59000000000
0!
0,
0-
b0000000000000010 :
0<
b0000000000000010 ?
1B
1E
b0000000000000010 F
0H
1J
0L
b0000000000000010 X
#59500000000
1!
1,
1-
b0000000000000001 :
1<
b0000000000000001 ?
0B
0E
b0000000000000001 F
1H
0J
1L
b0000000000000001 X
#60000000000
0!
0,
0-
b0000000000000010 :
0<
b0000000000000010 ?
1B
1E
b0000000000000010 F
0H
1J
0L
b0000000000000010 X
#60500000000
1!
1,
1-
b0000000000000001 :
1<
b0000000000000001 ?
0B
0E
b0000000000000001 F
1H
0J
1L
b0000000000000001 X
#61000000000
0!
0,
0-
b0000000000000010 :
0<
b0000000000000010 ?
1B
1E
b0000000000000010 F
0H
1J
0L
b0000000000000010 X
#61500000000
1!
1,
1-
b0000000000000001 :
1<
b0000000000000001 ?
0B
0E
b0000000000000001 F
1H
0J
1L
b0000000000000001 X
#62000000000
0!
0,
0-
b0000000000000010 :
0<
b0000000000000010 ?
1B
1E
b0000000000000010 F
0H
1J
0L
b0000000000000010 X
#62500000000
1!
1,
1-
b0000000000000001 :
1<
b0000000000000001 ?
0B
0E
b0000000000000001 F
1H
0J
1L
b0000000000000001 X
#63000000000
0!
0,
0-
b0000000000000010 :
0<
b0000000000000010 ?
1B
1E
b0000000000000010 F
0H
1J
0L
b0000000000000010 X
#63500000000
1!
1,
1-
b0000000000000001 :
1<
b0000000000000001 ?
0B
0E
b0000000000000001 F
1H
0J
1L
b0000000000000001 X
#64000000000
0!
0,
0-
b0000000000000010 :
0<
b0000000000000010 ?
1B
1E
b0000000000000010 F
0H
1J
0L
b0000000000000010 X
#64500000000
1!
1,
1-
b0000000000000001 :
1<
b0000000000000001 ?
0B
0E
b0000000000000001 F
1H
0J
1L
b0000000000000001 X
#65000000000
0!
0,
0-
b0000000000000010 :
0<
b0000000000000010 ?
1B
1E
b0000000000000010 F
0H
1J
0L
b0000000000000010 X
#65500000000
1!
1,
1-
b0000000000000001 :
1<
b0000000000000001 ?
0B
0E
b0000000000000001 F
1H
0J
1L
b0000000000000001 X
#66000000000
0!
0,
0-
b0000000000000010 :
0<
b0000000000000010 ?
1B
1E
b0000000000000010 F
0H
1J
0L
b0000000000000010 X
#66500000000
1!
1,
1-
b0000000000000001 :
1<
b0000000000000001 ?
0B
0E
b0000000000000001 F
1H
0J
1L
b0000000000000001 X
#67000000000
0!
0,
0-
b0000000000000010 :
0<
b0000000000000010 ?
1B
1E
b0000000000000010 F
0H
1J
0L
b0000000000000010 X
#67500000000
1!
1,
1-
b0000000000000001 :
1<
b0000000000000001 ?
0B
0E
b0000000000000001 F
1H
0J
1L
b0000000000000001 X
#68000000000
0!
0,
0-
b0000000000000010 :
0<
b0000000000000010 ?
1B
1E
b0000000000000010 F
0H
1J
0L
b0000000000000010 X
#68500000000
1!
1,
1-
b0000000000000001 :
1<
b0000000000000001 ?
0B
0E
b0000000000000001 F
1H
0J
1L
b0000000000000001 X
#69000000000
0!
0,
0-
b0000000000000010 :
0<
b0000000000000010 ?
1B
1E
b0000000000000010 F
0H
1J
0L
b0000000000000010 X
#69500000000
1!
1,
1-
b0000000000000001 :
1<
b0000000000000001 ?
0B
0E
b0000000000000001 F
1H
0J
1L
b0000000000000001 X
#70000000000
0!
0,
0-
b0000000000000010 :
0<
b0000000000000010 ?
1B
1E
b0000000000000010 F
0H
1J
0L
b0000000000000010 X
#70500000000
1!
1,
1-
b0000000000000001 :
1<
b0000000000000001 ?
0B
0E
b0000000000000001 F
1H
0J
1L
b0000000000000001 X
#71000000000
0!
0,
0-
b0000000000000010 :
0<
b0000000000000010 ?
1B
1E
b0000000000000010 F
0H
1J
0L
b0000000000000010 X
#71500000000
1!
1,
1-
b0000000000000001 :
1<
b0000000000000001 ?
0B
0E
b0000000000000001 F
1H
0J
1L
b0000000000000001 X
#72000000000
0!
0,
0-
b0000000000000010 :
0<
b0000000000000010 ?
1B
1E
b0000000000000010 F
0H
1J
0L
b0000000000000010 X
#72500000000
1!
1,
1-
b0000000000000001 :
1<
b0000000000000001 ?
0B
0E
b0000000000000001 F
1H
0J
1L
b0000000000000001 X
#73000000000
0!
0,
0-
b0000000000000010 :
0<
b0000000000000010 ?
1B
1E
b0000000000000010 F
0H
1J
0L
b0000000000000010 X
#73500000000
1!
1,
1-
b0000000000000001 :
1<
b0000000000000001 ?
0B
0E
b0000000000000001 F
1H
0J
1L
b0000000000000001 X
#74000000000
0!
0,
0-
b0000000000000010 :
0<
b0000000000000010 ?
1B
1E
b0000000000000010 F
0H
1J
0L
b0000000000000010 X
#74500000000
1!
1,
1-
b0000000000000001 :
1<
b0000000000000001 ?
0B
0E
b0000000000000001 F
1H
0J
1L
b0000000000000001 X
#75000000000
0!
0,
0-
b0000000000000010 :
0<
b0000000000000010 ?
1B
1E
b0000000000000010 F
0H
1J
0L
b0000000000000010 X
#75500000000
1!
1,
1-
b0000000000000001 :
1<
b0000000000000001 ?
0B
0E
b0000000000000001 F
1H
0J
1L
b0000000000000001 X
#76000000000
0!
0,
0-
b0000000000000010 :
0<
b0000000000000010 ?
1B
1E
b0000000000000010 F
0H
1J
0L
b0000000000000010 X
#76500000000
1!
1,
1-
b0000000000000001 :
1<
b0000000000000001 ?
0B
0E
b0000000000000001 F
1H
0J
1L
b0000000000000001 X
#77000000000
0!
0,
0-
b0000000000000010 :
0<
b0000000000000010 ?
1B
1E
b0000000000000010 F
0H
1J
0L
b0000000000000010 X
#77500000000
1!
1,
1-
b0000000000000001 :
1<
b0000000000000001 ?
0B
0E
b0000000000000001 F
1H
0J
1L
b0000000000000001 X
#78000000000
0!
0,
0-
b0000000000000010 :
0<
b0000000000000010 ?
1B
1E
b0000000000000010 F
0H
1J
0L
b0000000000000010 X
#78500000000
1!
1,
1-
b0000000000000001 :
1<
b0000000000000001 ?
0B
0E
b0000000000000001 F
1H
0J
1L
b0000000000000001 X
#79000000000
0!
0,
0-
b0000000000000010 :
0<
b0000000000000010 ?
1B
1E
b0000000000000010 F
0H
1J
0L
b0000000000000010 X
#79500000000
1!
1,
1-
b0000000000000001 :
1<
b0000000000000001 ?
0B
0E
b0000000000000001 F
1H
0J
1L
b0000000000000001 X
#80000000000
0!
0,
0-
b0000000000000010 :
0<
b0000000000000010 ?
1B
1E
b0000000000000010 F
0H
1J
0L
b0000000000000010 X
#80500000000
1!
1,
1-
b0000000000000001 :
1<
b0000000000000001 ?
0B
0E
b0000000000000001 F
1H
0J
1L
b0000000000000001 X
#81000000000
0!
0,
0-
b0000000000000010 :
0<
b0000000000000010 ?
1B
1E
b0000000000000010 F
0H
1J
0L
b0000000000000010 X
#81500000000
1!
1,
1-
b0000000000000001 :
1<
b0000000000000001 ?
0B
0E
b0000000000000001 F
1H
0J
1L
b0000000000000001 X
#82000000000
0!
0,
0-
b0000000000000010 :
0<
b0000000000000010 ?
1B
1E
b0000000000000010 F
0H
1J
0L
b0000000000000010 X
#82500000000
1!
1,
1-
b0000000000000001 :
1<
b0000000000000001 ?
0B
0E
b0000000000000001 F
1H
0J
1L
b0000000000000001 X
#83000000000
0!
0,
0-
b0000000000000010 :
0<
b0000000000000010 ?
1B
1E
b0000000000000010 F
0H
1J
0L
b0000000000000010 X
#83500000000
1!
1,
1-
b0000000000000001 :
1<
b0000000000000001 ?
0B
0E
b0000000000000001 F
1H
0J
1L
b0000000000000001 X
#84000000000
0!
0,
0-
b0000000000000010 :
0<
b0000000000000010 ?
1B
1E
b0000000000000010 F
0H
1J
0L
b0000000000000010 X
#84500000000
1!
1,
1-
b0000000000000001 :
1<
b0000000000000001 ?
0B
0E
b0000000000000001 F
1H
0J
1L
b0000000000000001 X
#85000000000
0!
0,
0-
b0000000000000010 :
0<
b0000000000000010 ?
1B
1E
b0000000000000010 F
0H
1J
0L
b0000000000000010 X
#85500000000
1!
1,
1-
b0000000000000001 :
1<
b0000000000000001 ?
0B
0E
b0000000000000001 F
1H
0J
1L
b0000000000000001 X
#86000000000
0!
0,
0-
b0000000000000010 :
0<
b0000000000000010 ?
1B
1E
b0000000000000010 F
0H
1J
0L
b0000000000000010 X
#86500000000
1!
1,
1-
b0000000000000001 :
1<
b0000000000000001 ?
0B
0E
b0000000000000001 F
1H
0J
1L
b0000000000000001 X
#87000000000
0!
0,
0-
b0000000000000010 :
0<
b0000000000000010 ?
1B
1E
b0000000000000010 F
0H
1J
0L
b0000000000000010 X
#87500000000
1!
1,
1-
b0000000000000001 :
1<
b0000000000000001 ?
0B
0E
b0000000000000001 F
1H
0J
1L
b0000000000000001 X
#88000000000
0!
0,
0-
b0000000000000010 :
0<
b0000000000000010 ?
1B
1E
b0000000000000010 F
0H
1J
0L
b0000000000000010 X
#88500000000
1!
1,
1-
b0000000000000001 :
1<
b0000000000000001 ?
0B
0E
b0000000000000001 F
1H
0J
1L
b0000000000000001 X
